^F:\GIT\OPENCV-MOVINGOBJECTDETECTION\MOVINGOBJECTDETECTION\X64\DEBUG\.NETFRAMEWORK,VERSION=V4.5.ASSEMBLYATTRIBUTES.OBJ|F:\GIT\OPENCV-MOVINGOBJECTDETECTION\MOVINGOBJECTDETECTION\X64\DEBUG\APP.RES|F:\GIT\OPENCV-MOVINGOBJECTDETECTION\MOVINGOBJECTDETECTION\X64\DEBUG\ASSEMBLYINFO.OBJ|F:\GIT\OPENCV-MOVINGOBJECTDETECTION\MOVINGOBJECTDETECTION\X64\DEBUG\MOVINGOBJECTDETECTION.OBJ|F:\GIT\OPENCV-MOVINGOBJECTDETECTION\MOVINGOBJECTDETECTION\X64\DEBUG\STDAFX.OBJ
C:\WINDOWS\SYSTEM32\C_1252.NLS
C:\WINDOWS\GLOBALIZATION\SORTING\SORTDEFAULT.NLS
C:\OPENCV\BUILD\X64\VC11\LIB\OPENCV_CALIB3D2411D.LIB
C:\OPENCV\BUILD\X64\VC11\LIB\OPENCV_CONTRIB2411D.LIB
C:\OPENCV\BUILD\X64\VC11\LIB\OPENCV_CORE2411D.LIB
C:\OPENCV\BUILD\X64\VC11\LIB\OPENCV_FEATURES2D2411D.LIB
C:\OPENCV\BUILD\X64\VC11\LIB\OPENCV_FLANN2411D.LIB
C:\OPENCV\BUILD\X64\VC11\LIB\OPENCV_GPU2411D.LIB
C:\OPENCV\BUILD\X64\VC11\LIB\OPENCV_HIGHGUI2411D.LIB
C:\OPENCV\BUILD\X64\VC11\LIB\OPENCV_IMGPROC2411D.LIB
C:\OPENCV\BUILD\X64\VC11\LIB\OPENCV_LEGACY2411D.LIB
C:\OPENCV\BUILD\X64\VC11\LIB\OPENCV_ML2411D.LIB
C:\OPENCV\BUILD\X64\VC11\LIB\OPENCV_NONFREE2411D.LIB
C:\OPENCV\BUILD\X64\VC11\LIB\OPENCV_OBJDETECT2411D.LIB
C:\OPENCV\BUILD\X64\VC11\LIB\OPENCV_PHOTO2411D.LIB
C:\OPENCV\BUILD\X64\VC11\LIB\OPENCV_STITCHING2411D.LIB
C:\OPENCV\BUILD\X64\VC11\LIB\OPENCV_TS2411D.LIB
C:\OPENCV\BUILD\X64\VC11\LIB\OPENCV_VIDEO2411D.LIB
C:\OPENCV\BUILD\X64\VC11\LIB\OPENCV_VIDEOSTAB2411D.LIB
C:\PROGRAM FILES (X86)\WINDOWS KITS\8.0\LIB\WIN8\UM\X64\KERNEL32.LIB
C:\PROGRAM FILES (X86)\WINDOWS KITS\8.0\LIB\WIN8\UM\X64\USER32.LIB
C:\PROGRAM FILES (X86)\WINDOWS KITS\8.0\LIB\WIN8\UM\X64\GDI32.LIB
C:\PROGRAM FILES (X86)\WINDOWS KITS\8.0\LIB\WIN8\UM\X64\WINSPOOL.LIB
C:\PROGRAM FILES (X86)\WINDOWS KITS\8.0\LIB\WIN8\UM\X64\COMDLG32.LIB
C:\PROGRAM FILES (X86)\WINDOWS KITS\8.0\LIB\WIN8\UM\X64\ADVAPI32.LIB
C:\PROGRAM FILES (X86)\WINDOWS KITS\8.0\LIB\WIN8\UM\X64\SHELL32.LIB
C:\PROGRAM FILES (X86)\WINDOWS KITS\8.0\LIB\WIN8\UM\X64\OLE32.LIB
C:\PROGRAM FILES (X86)\WINDOWS KITS\8.0\LIB\WIN8\UM\X64\OLEAUT32.LIB
C:\PROGRAM FILES (X86)\WINDOWS KITS\8.0\LIB\WIN8\UM\X64\UUID.LIB
C:\PROGRAM FILES (X86)\WINDOWS KITS\8.0\LIB\WIN8\UM\X64\ODBC32.LIB
C:\PROGRAM FILES (X86)\WINDOWS KITS\8.0\LIB\WIN8\UM\X64\ODBCCP32.LIB
F:\GIT\OPENCV-MOVINGOBJECTDETECTION\MOVINGOBJECTDETECTION\X64\DEBUG\APP.RES
F:\GIT\OPENCV-MOVINGOBJECTDETECTION\MOVINGOBJECTDETECTION\X64\DEBUG\ASSEMBLYINFO.OBJ
F:\GIT\OPENCV-MOVINGOBJECTDETECTION\MOVINGOBJECTDETECTION\X64\DEBUG\MOVINGOBJECTDETECTION.OBJ
F:\GIT\OPENCV-MOVINGOBJECTDETECTION\MOVINGOBJECTDETECTION\X64\DEBUG\STDAFX.OBJ
F:\GIT\OPENCV-MOVINGOBJECTDETECTION\MOVINGOBJECTDETECTION\X64\DEBUG\.NETFRAMEWORK,VERSION=V4.5.ASSEMBLYATTRIBUTES.OBJ
C:\PROGRAM FILES (X86)\MICROSOFT VISUAL STUDIO 11.0\VC\BIN\X86_AMD64\LINK.EXE
C:\WINDOWS\SYSTEM32\RSAENH.DLL
C:\WINDOWS\SYSTEM32\TZRES.DLL
C:\WINDOWS\MICROSOFT.NET\FRAMEWORK\V2.0.50727\MSCORWKS.DLL
C:\WINDOWS\MICROSOFT.NET\FRAMEWORK\V4.0.30319\CLR.DLL
C:\PROGRAM FILES (X86)\MICROSOFT VISUAL STUDIO 11.0\VC\BIN\X86_AMD64\LINK.EXE.CONFIG
C:\PROGRAM FILES (X86)\MICROSOFT VISUAL STUDIO 11.0\VC\LIB\AMD64\MSVCRTD.LIB
C:\PROGRAM FILES (X86)\MICROSOFT VISUAL STUDIO 11.0\VC\LIB\AMD64\OLDNAMES.LIB
C:\PROGRAM FILES (X86)\MICROSOFT VISUAL STUDIO 11.0\VC\LIB\AMD64\MSVCMRTD.LIB
C:\PROGRAM FILES (X86)\WINDOWS KITS\8.0\LIB\WIN8\UM\X64\MSCOREE.LIB
C:\PROGRAM FILES (X86)\MICROSOFT VISUAL STUDIO 11.0\VC\LIB\AMD64\MSVCPRTD.LIB
C:\PROGRAM FILES (X86)\WINDOWS KITS\8.0\BIN\X86\RC.EXE
C:\PROGRAM FILES (X86)\MICROSOFT VISUAL STUDIO 11.0\VC\BIN\CVTRES.EXE
C:\PROGRAM FILES (X86)\MICROSOFT VISUAL STUDIO 11.0\VC\BIN\X86_AMD64\1028\LINKUI.DLL
