^F:\GIT\OPENCV-MOVINGOBJECTDETECTION\MOVINGOBJECTDETECTION\APP.RC
F:\GIT\OPENCV-MOVINGOBJECTDETECTION\MOVINGOBJECTDETECTION\RESOURCE.H
F:\GIT\OPENCV-MOVINGOBJECTDETECTION\MOVINGOBJECTDETECTION\APP.ICO
